{"count":1370,"next":"https://thesailmaster.si/api/search/?limit=10&offset=10","previous":null,"results":[{"id":7318410,"yacht":{"id":11822,"yacht_model":{"name":"Bavaria Cruiser 46 - 4 cab.","category_name":"Jadrnica","loa":"14.27","beam":"4.35","draft":"2.10","cabins":4,"wc":3,"water_tank":0,"fuel_tank":0,"displacement":0},"cabins_total":4,"berths_total":9,"build_year":2022,"draft":"2.10","pictures":["https://ws.nausys.com/CBMS-external/rest/yacht/20931401/pictures/main.jpg","https://ws.nausys.com/CBMS-external/rest/yacht/20931401/pictures/layout.jpg","https://ws.nausys.com/CBMS-external/rest/yacht/20931401/pictures/n.jpg","https://ws.nausys.com/CBMS-external/rest/yacht/20931401/pictures/n1.jpg","https://ws.nausys.com/CBMS-external/rest/yacht/20931401/pictures/n2.jpg","https://ws.nausys.com/CBMS-external/rest/yacht/20931401/pictures/n3.jpg","https://ws.nausys.com/CBMS-external/rest/yacht/20931401/pictures/p.jpg","https://ws.nausys.com/CBMS-external/rest/yacht/20931401/pictures/r.jpg","https://ws.nausys.com/CBMS-external/rest/yacht/20931401/pictures/w.jpg"],"wc":3,"featured_equipment":[{"image":"avtopilot.svg","name":"Automatski pilot"},{"image":"gps-ploter.svg","name":"GPS chart plotter - cockpit"},{"image":"premcni-propeler.svg","name":"Premčni propeler"},{"image":"solarni-kolektorji.svg","name":"Sončni paneli"}]},"label":{"style":"","name":"EKSKLUZIVNO"},"location_from":{"name":"Marina Tehnomont Veruda, Pula","region_name":"Istra","country_name":"Hrvaška","country_code":"HRV","country_iso_code":"HR","lat":"44.844120","lon":"13.844580"},"price_list_price":"1700.00","client_price":"1530.00","period_from":"2023-03-11","period_to":"2023-03-18","special_offer":null,"discount":"6.00","option":false},{"id":7318411,"yacht":{"id":11825,"yacht_model":{"name":"Oceanis 51.1","category_name":"Jadrnica","loa":"15.94","beam":"4.80","draft":"2.36","cabins":5,"wc":3,"water_tank":0,"fuel_tank":0,"displacement":0},"cabins_total":5,"berths_total":12,"build_year":2022,"draft":"2.36","pictures":["https://ws.nausys.com/CBMS-external/rest/yacht/20931525/pictures/main.jpg","https://ws.nausys.com/CBMS-external/rest/yacht/20931525/pictures/layout.jpg","https://ws.nausys.com/CBMS-external/rest/yacht/20931525/pictures/n.jpg","https://ws.nausys.com/CBMS-external/rest/yacht/20931525/pictures/n1.jpg","https://ws.nausys.com/CBMS-external/rest/yacht/20931525/pictures/n2.jpg","https://ws.nausys.com/CBMS-external/rest/yacht/20931525/pictures/n3.jpg","https://ws.nausys.com/CBMS-external/rest/yacht/20931525/pictures/n4.jpg","https://ws.nausys.com/CBMS-external/rest/yacht/20931525/pictures/p.jpg","https://ws.nausys.com/CBMS-external/rest/yacht/20931525/pictures/p1.jpg","https://ws.nausys.com/CBMS-external/rest/yacht/20931525/pictures/p2.jpg","https://ws.nausys.com/CBMS-external/rest/yacht/20931525/pictures/p3.jpg","https://ws.nausys.com/CBMS-external/rest/yacht/20931525/pictures/r.jpg","https://ws.nausys.com/CBMS-external/rest/yacht/20931525/pictures/w.jpg"],"wc":3,"featured_equipment":[{"image":"avtopilot.svg","name":"Automatski pilot"},{"image":"gps-ploter.svg","name":"GPS chart plotter - cockpit"},{"image":"premcni-propeler.svg","name":"Premčni propeler"},{"image":"solarni-kolektorji.svg","name":"Sončni paneli"}]},"label":{"style":"","name":"EKSKLUZIVNO"},"location_from":{"name":"Marina Tehnomont Veruda, Pula","region_name":"Istra","country_name":"Hrvaška","country_code":"HRV","country_iso_code":"HR","lat":"44.844120","lon":"13.844580"},"price_list_price":"2800.00","client_price":"2520.00","period_from":"2023-03-11","period_to":"2023-03-18","special_offer":null,"discount":"6.00","option":false},{"id":7318412,"yacht":{"id":13479,"yacht_model":{"name":"Bavaria C38","category_name":"Jadrnica","loa":"11.31","beam":"3.98","draft":"2.05","cabins":3,"wc":2,"water_tank":0,"fuel_tank":0,"displacement":0},"cabins_total":3,"berths_total":8,"build_year":2023,"draft":"2.05","pictures":["https://ws.nausys.com/CBMS-external/rest/yacht/29032424/pictures/main.jpg","https://ws.nausys.com/CBMS-external/rest/yacht/29032424/pictures/layout.jpg","https://ws.nausys.com/CBMS-external/rest/yacht/29032424/pictures/n.jpg","https://ws.nausys.com/CBMS-external/rest/yacht/29032424/pictures/n1.jpg","https://ws.nausys.com/CBMS-external/rest/yacht/29032424/pictures/n2.jpg","https://ws.nausys.com/CBMS-external/rest/yacht/29032424/pictures/n3.jpg","https://ws.nausys.com/CBMS-external/rest/yacht/29032424/pictures/n4.jpg","https://ws.nausys.com/CBMS-external/rest/yacht/29032424/pictures/n5.jpg","https://ws.nausys.com/CBMS-external/rest/yacht/29032424/pictures/p.jpg","https://ws.nausys.com/CBMS-external/rest/yacht/29032424/pictures/p1.jpg","https://ws.nausys.com/CBMS-external/rest/yacht/29032424/pictures/r.jpg","https://ws.nausys.com/CBMS-external/rest/yacht/29032424/pictures/r1.jpg"],"wc":2,"featured_equipment":[{"image":"avtopilot.svg","name":"Automatski pilot"},{"image":"gps-ploter.svg","name":"GPS chart plotter - cockpit"},{"image":"premcni-propeler.svg","name":"Premčni propeler"},{"image":"solarni-kolektorji.svg","name":"Sončni paneli"}]},"label":{"style":"","name":"EKSKLUZIVNO"},"location_from":{"name":"Marina Tehnomont Veruda, Pula","region_name":"Istra","country_name":"Hrvaška","country_code":"HRV","country_iso_code":"HR","lat":"44.844120","lon":"13.844580"},"price_list_price":"1350.00","client_price":"1215.00","period_from":"2023-03-11","period_to":"2023-03-18","special_offer":null,"discount":"6.00","option":false},{"id":7318415,"yacht":{"id":11821,"yacht_model":{"name":"Bavaria Cruiser 41 - 3 cab.","category_name":"Jadrnica","loa":"12.35","beam":"3.95","draft":"1.65","cabins":3,"wc":2,"water_tank":0,"fuel_tank":0,"displacement":0},"cabins_total":3,"berths_total":7,"build_year":2022,"draft":"2.05","pictures":["https://ws.nausys.com/CBMS-external/rest/yacht/20926553/pictures/main.jpg","https://ws.nausys.com/CBMS-external/rest/yacht/20926553/pictures/layout.jpg","https://ws.nausys.com/CBMS-external/rest/yacht/20926553/pictures/n.jpg","https://ws.nausys.com/CBMS-external/rest/yacht/20926553/pictures/n1.jpg","https://ws.nausys.com/CBMS-external/rest/yacht/20926553/pictures/n2.jpg","https://ws.nausys.com/CBMS-external/rest/yacht/20926553/pictures/n3.jpg","https://ws.nausys.com/CBMS-external/rest/yacht/20926553/pictures/p.jpg","https://ws.nausys.com/CBMS-external/rest/yacht/20926553/pictures/r.jpg","https://ws.nausys.com/CBMS-external/rest/yacht/20926553/pictures/w.jpg"],"wc":2,"featured_equipment":[{"image":"avtopilot.svg","name":"Automatski pilot"},{"image":"gps-ploter.svg","name":"GPS chart plotter - cockpit"},{"image":"premcni-propeler.svg","name":"Premčni propeler"},{"image":"solarni-kolektorji.svg","name":"Sončni paneli"}]},"label":{"style":"","name":"EKSKLUZIVNO"},"location_from":{"name":"Marina Tehnomont Veruda, Pula","region_name":"Istra","country_name":"Hrvaška","country_code":"HRV","country_iso_code":"HR","lat":"44.844120","lon":"13.844580"},"price_list_price":"1350.00","client_price":"1215.00","period_from":"2023-03-11","period_to":"2023-03-18","special_offer":null,"discount":"6.00","option":false},{"id":7318416,"yacht":{"id":11824,"yacht_model":{"name":"Oceanis 40.1 - 3 cab.","category_name":"Jadrnica","loa":"12.87","beam":"4.18","draft":"2.17","cabins":3,"wc":2,"water_tank":0,"fuel_tank":0,"displacement":0},"cabins_total":3,"berths_total":8,"build_year":2022,"draft":"2.10","pictures":["https://ws.nausys.com/CBMS-external/rest/yacht/20931411/pictures/main.jpg","https://ws.nausys.com/CBMS-external/rest/yacht/20931411/pictures/layout.jpg","https://ws.nausys.com/CBMS-external/rest/yacht/20931411/pictures/n.jpg","https://ws.nausys.com/CBMS-external/rest/yacht/20931411/pictures/n1.jpg","https://ws.nausys.com/CBMS-external/rest/yacht/20931411/pictures/n2.jpg","https://ws.nausys.com/CBMS-external/rest/yacht/20931411/pictures/n3.jpg","https://ws.nausys.com/CBMS-external/rest/yacht/20931411/pictures/p.jpg","https://ws.nausys.com/CBMS-external/rest/yacht/20931411/pictures/p1.jpg","https://ws.nausys.com/CBMS-external/rest/yacht/20931411/pictures/p2.jpg","https://ws.nausys.com/CBMS-external/rest/yacht/20931411/pictures/p3.jpg","https://ws.nausys.com/CBMS-external/rest/yacht/20931411/pictures/r.jpg","https://ws.nausys.com/CBMS-external/rest/yacht/20931411/pictures/r1.jpg"],"wc":2,"featured_equipment":[{"image":"avtopilot.svg","name":"Automatski pilot"},{"image":"gps-ploter.svg","name":"GPS chart plotter - cockpit"},{"image":"premcni-propeler.svg","name":"Premčni propeler"},{"image":"solarni-kolektorji.svg","name":"Sončni paneli"}]},"label":{"style":"","name":"EKSKLUZIVNO"},"location_from":{"name":"Marina Tehnomont Veruda, Pula","region_name":"Istra","country_name":"Hrvaška","country_code":"HRV","country_iso_code":"HR","lat":"44.844120","lon":"13.844580"},"price_list_price":"1500.00","client_price":"1350.00","period_from":"2023-03-11","period_to":"2023-03-18","special_offer":null,"discount":"6.00","option":false},{"id":7318417,"yacht":{"id":11823,"yacht_model":{"name":"Bavaria Cruiser 46 - 4 cab.","category_name":"Jadrnica","loa":"14.27","beam":"4.35","draft":"2.10","cabins":4,"wc":3,"water_tank":0,"fuel_tank":0,"displacement":0},"cabins_total":4,"berths_total":9,"build_year":2022,"draft":"2.10","pictures":["https://ws.nausys.com/CBMS-external/rest/yacht/20931410/pictures/main.jpg","https://ws.nausys.com/CBMS-external/rest/yacht/20931410/pictures/layout.jpg","https://ws.nausys.com/CBMS-external/rest/yacht/20931410/pictures/n.jpg","https://ws.nausys.com/CBMS-external/rest/yacht/20931410/pictures/n1.jpg","https://ws.nausys.com/CBMS-external/rest/yacht/20931410/pictures/n2.jpg","https://ws.nausys.com/CBMS-external/rest/yacht/20931410/pictures/n3.jpg","https://ws.nausys.com/CBMS-external/rest/yacht/20931410/pictures/p.jpg","https://ws.nausys.com/CBMS-external/rest/yacht/20931410/pictures/r.jpg","https://ws.nausys.com/CBMS-external/rest/yacht/20931410/pictures/w.jpg"],"wc":3,"featured_equipment":[{"image":"avtopilot.svg","name":"Automatski pilot"},{"image":"gps-ploter.svg","name":"GPS chart plotter - cockpit"},{"image":"premcni-propeler.svg","name":"Premčni propeler"},{"image":"solarni-kolektorji.svg","name":"Sončni paneli"}]},"label":{"style":"","name":"EKSKLUZIVNO"},"location_from":{"name":"Marina Tehnomont Veruda, Pula","region_name":"Istra","country_name":"Hrvaška","country_code":"HRV","country_iso_code":"HR","lat":"44.844120","lon":"13.844580"},"price_list_price":"1700.00","client_price":"1530.00","period_from":"2023-03-11","period_to":"2023-03-18","special_offer":null,"discount":"6.00","option":false},{"id":7987918,"yacht":{"id":13701,"yacht_model":{"name":"Elan Impression 45.1 - 3 cab.","category_name":"Jadrnica","loa":"13.85","beam":"4.18","draft":"1.90","cabins":3,"wc":2,"water_tank":0,"fuel_tank":0,"displacement":0},"cabins_total":3,"berths_total":8,"build_year":2023,"draft":"1.90","pictures":["https://ws.nausys.com/CBMS-external/rest/yacht/30857008/pictures/main.jpg","https://ws.nausys.com/CBMS-external/rest/yacht/30857008/pictures/layout.jpg","https://ws.nausys.com/CBMS-external/rest/yacht/30857008/pictures/n.jpg","https://ws.nausys.com/CBMS-external/rest/yacht/30857008/pictures/n1.jpg","https://ws.nausys.com/CBMS-external/rest/yacht/30857008/pictures/n2.jpg","https://ws.nausys.com/CBMS-external/rest/yacht/30857008/pictures/n3.jpg","https://ws.nausys.com/CBMS-external/rest/yacht/30857008/pictures/n4.jpg","https://ws.nausys.com/CBMS-external/rest/yacht/30857008/pictures/n5.jpg","https://ws.nausys.com/CBMS-external/rest/yacht/30857008/pictures/n6.jpg","https://ws.nausys.com/CBMS-external/rest/yacht/30857008/pictures/n7.jpg","https://ws.nausys.com/CBMS-external/rest/yacht/30857008/pictures/p.jpg","https://ws.nausys.com/CBMS-external/rest/yacht/30857008/pictures/p1.jpg","https://ws.nausys.com/CBMS-external/rest/yacht/30857008/pictures/p2.jpg","https://ws.nausys.com/CBMS-external/rest/yacht/30857008/pictures/p3.jpg","https://ws.nausys.com/CBMS-external/rest/yacht/30857008/pictures/p4.jpg","https://ws.nausys.com/CBMS-external/rest/yacht/30857008/pictures/r.jpg","https://ws.nausys.com/CBMS-external/rest/yacht/30857008/pictures/r1.jpg","https://ws.nausys.com/CBMS-external/rest/yacht/30857008/pictures/w.jpg"],"wc":2,"featured_equipment":[{"image":"avtopilot.svg","name":"Automatski pilot"},{"image":"gps-ploter.svg","name":"GPS chart plotter - cockpit"},{"image":"premcni-propeler.svg","name":"Premčni propeler"},{"image":"solarni-kolektorji.svg","name":"Sončni paneli"}]},"label":{"style":"","name":"EKSKLUZIVNO"},"location_from":{"name":"Marina Tehnomont Veruda, Pula","region_name":"Istra","country_name":"Hrvaška","country_code":"HRV","country_iso_code":"HR","lat":"44.844120","lon":"13.844580"},"price_list_price":"1700.00","client_price":"1530.00","period_from":"2023-03-11","period_to":"2023-03-18","special_offer":null,"discount":"6.00","option":false},{"id":8497898,"yacht":{"id":14177,"yacht_model":{"name":"Bavaria Cruiser 51","category_name":"Jadrnica","loa":"15.59","beam":"4.67","draft":"1.85","cabins":5,"wc":3,"water_tank":0,"fuel_tank":0,"displacement":0},"cabins_total":5,"berths_total":12,"build_year":2017,"draft":"2.25","pictures":["https://ws.nausys.com/CBMS-external/rest/yachtModel/556469/pictures/main.jpeg","https://ws.nausys.com/CBMS-external/rest/yacht/32661911/pictures/layout.jpg","https://ws.nausys.com/CBMS-external/rest/yacht/32661911/pictures/n.jpg","https://ws.nausys.com/CBMS-external/rest/yacht/32661911/pictures/n1.jpg","https://ws.nausys.com/CBMS-external/rest/yacht/32661911/pictures/n2.jpg","https://ws.nausys.com/CBMS-external/rest/yacht/32661911/pictures/n3.jpg","https://ws.nausys.com/CBMS-external/rest/yacht/32661911/pictures/p.jpg","https://ws.nausys.com/CBMS-external/rest/yacht/32661911/pictures/p1.jpg","https://ws.nausys.com/CBMS-external/rest/yacht/32661911/pictures/p2.jpg","https://ws.nausys.com/CBMS-external/rest/yacht/32661911/pictures/p3.jpg","https://ws.nausys.com/CBMS-external/rest/yacht/32661911/pictures/r.jpg","https://ws.nausys.com/CBMS-external/rest/yacht/32661911/pictures/r1.jpg","https://ws.nausys.com/CBMS-external/rest/yacht/32661911/pictures/r3.jpg","https://ws.nausys.com/CBMS-external/rest/yacht/32661911/pictures/w.jpg","https://ws.nausys.com/CBMS-external/rest/yacht/32661911/pictures/w1.jpg","https://ws.nausys.com/CBMS-external/rest/yacht/32661911/pictures/w2.jpg","https://ws.nausys.com/CBMS-external/rest/yacht/32661911/pictures/w3.jpg","https://ws.nausys.com/CBMS-external/rest/yacht/32661911/pictures/w4.jpg","https://ws.nausys.com/CBMS-external/rest/yacht/32661911/pictures/z.jpg"],"wc":3,"featured_equipment":[{"image":"avtopilot.svg","name":"Automatski pilot"},{"image":"gps-ploter.svg","name":"GPS chart ploter"},{"image":"premcni-propeler.svg","name":"Premčni propeler"}]},"label":{"style":"","name":"EKSKLUZIVNO"},"location_from":{"name":"Trogir, Yachtclub Seget (Marina Baotić)","region_name":"Split regija","country_name":"Hrvaška","country_code":"HRV","country_iso_code":"HR","lat":"43.515440","lon":"16.232730"},"price_list_price":"2200.00","client_price":"1650.00","period_from":"2023-03-11","period_to":"2023-03-18","special_offer":null,"discount":"6.00","option":false},{"id":7461065,"yacht":{"id":2822,"yacht_model":{"name":"Elan Impression 45","category_name":"Jadrnica","loa":"13.85","beam":"4.18","draft":"1.90","cabins":4,"wc":2,"water_tank":0,"fuel_tank":0,"displacement":0},"cabins_total":4,"berths_total":10,"build_year":2017,"draft":"1.90","pictures":["https://ws.nausys.com/CBMS-external/rest/yacht/1394539/pictures/main.jpg.jpg","https://ws.nausys.com/CBMS-external/rest/yachtModel/837181/pictures/layout.jpg","https://ws.nausys.com/CBMS-external/rest/yacht/1394539/pictures/n.jpg.jpg","https://ws.nausys.com/CBMS-external/rest/yacht/1394539/pictures/p.jpg.jpg","https://ws.nausys.com/CBMS-external/rest/yacht/1394539/pictures/p1.jpg.jpg","https://ws.nausys.com/CBMS-external/rest/yacht/1394539/pictures/p2.jpg.jpg","https://ws.nausys.com/CBMS-external/rest/yacht/1394539/pictures/p3.jpg.jpg","https://ws.nausys.com/CBMS-external/rest/yacht/1394539/pictures/p4.jpg.jpg","https://ws.nausys.com/CBMS-external/rest/yacht/1394539/pictures/p5.jpg.jpg","https://ws.nausys.com/CBMS-external/rest/yacht/1394539/pictures/p6.jpg.jpg","https://ws.nausys.com/CBMS-external/rest/yacht/1394539/pictures/r.jpg.jpg","https://ws.nausys.com/CBMS-external/rest/yacht/1394539/pictures/r1.jpg.jpg","https://ws.nausys.com/CBMS-external/rest/yacht/1394539/pictures/r2.jpg.jpg","https://ws.nausys.com/CBMS-external/rest/yacht/1394539/pictures/r3.jpg.jpg","https://ws.nausys.com/CBMS-external/rest/yacht/1394539/pictures/w.jpg.jpg","https://ws.nausys.com/CBMS-external/rest/yacht/1394539/pictures/w1.jpg.jpg"],"wc":2,"featured_equipment":[{"image":"avtopilot.svg","name":"Automatski pilot"},{"image":"gps-ploter.svg","name":"GPS chart ploter"},{"image":"gps-ploter.svg","name":"GPS chart plotter - cockpit"},{"image":"premcni-propeler.svg","name":"Premčni propeler"},{"image":"solarni-kolektorji.svg","name":"Sončni paneli"}]},"label":null,"location_from":{"name":"ACI Marina Trogir","region_name":"Split regija","country_name":"Hrvaška","country_code":"HRV","country_iso_code":"HR","lat":"43.513730","lon":"16.248250"},"price_list_price":"1600.00","client_price":"1120.00","period_from":"2023-03-11","period_to":"2023-03-18","special_offer":null,"discount":"5.00","option":false},{"id":7461122,"yacht":{"id":2819,"yacht_model":{"name":"Cobra 41","category_name":"Jadrnica","loa":"12.30","beam":"3.95","draft":"2.35","cabins":4,"wc":2,"water_tank":200,"fuel_tank":90,"displacement":0},"cabins_total":4,"berths_total":8,"build_year":2016,"draft":"2.35","pictures":["https://ws.nausys.com/CBMS-external/rest/yacht/1058215/pictures/main.jpg","https://ws.nausys.com/CBMS-external/rest/yacht/1058215/pictures/layout.jpg","https://ws.nausys.com/CBMS-external/rest/yacht/1058215/pictures/n.jpg","https://ws.nausys.com/CBMS-external/rest/yacht/1058215/pictures/n1.jpg","https://ws.nausys.com/CBMS-external/rest/yacht/1058215/pictures/p.jpg.jpg","https://ws.nausys.com/CBMS-external/rest/yacht/1058215/pictures/p1.jpg.jpg","https://ws.nausys.com/CBMS-external/rest/yacht/1058215/pictures/p2.jpg.jpg","https://ws.nausys.com/CBMS-external/rest/yacht/1058215/pictures/p3.jpg.jpg","https://ws.nausys.com/CBMS-external/rest/yacht/1058215/pictures/p4.jpg.jpg","https://ws.nausys.com/CBMS-external/rest/yacht/1058215/pictures/r.jpg.jpg","https://ws.nausys.com/CBMS-external/rest/yacht/1058215/pictures/r1.jpg.jpg","https://ws.nausys.com/CBMS-external/rest/yacht/1058215/pictures/r2.jpg.jpg","https://ws.nausys.com/CBMS-external/rest/yacht/1058215/pictures/r3.jpg.jpg","https://ws.nausys.com/CBMS-external/rest/yacht/1058215/pictures/w.jpg.jpg","https://ws.nausys.com/CBMS-external/rest/yacht/1058215/pictures/w1.jpg.jpg","https://ws.nausys.com/CBMS-external/rest/yacht/1058215/pictures/z.jpg"],"wc":2,"featured_equipment":[{"image":"avtopilot.svg","name":"Automatski pilot"},{"image":"gps-ploter.svg","name":"GPS chart plotter - cockpit"},{"image":"premcni-propeler.svg","name":"Premčni propeler"}]},"label":null,"location_from":{"name":"ACI Marina Trogir","region_name":"Split regija","country_name":"Hrvaška","country_code":"HRV","country_iso_code":"HR","lat":"43.513730","lon":"16.248250"},"price_list_price":"1200.00","client_price":"840.00","period_from":"2023-03-11","period_to":"2023-03-18","special_offer":null,"discount":"5.00","option":false}]}