{"count":369,"next":"https://thesailmaster.si/api/search/?destinations=region-112-%C5%A0ibenska+regija&destinations=region-37-Dubrovnik+regija&limit=10&offset=10","previous":null,"results":[{"id":6721990,"yacht":{"id":6079,"yacht_model":{"name":"Oceanis 46.1 - 4 cab.","category_name":"Jadrnica","loa":"14.60","beam":"4.50","draft":"2.35","cabins":4,"wc":4,"water_tank":0,"fuel_tank":0,"displacement":0},"cabins_total":4,"berths_total":10,"build_year":2019,"draft":"2.05","pictures":["https://ws.nausys.com/CBMS-external/rest/yacht/8651640/pictures/main.jpg","https://ws.nausys.com/CBMS-external/rest/yacht/8651640/pictures/layout.jpg","https://ws.nausys.com/CBMS-external/rest/yacht/8651640/pictures/n1.jpg","https://ws.nausys.com/CBMS-external/rest/yacht/8651640/pictures/n2.jpg","https://ws.nausys.com/CBMS-external/rest/yacht/8651640/pictures/p1.jpg","https://ws.nausys.com/CBMS-external/rest/yacht/8651640/pictures/p2.jpg","https://ws.nausys.com/CBMS-external/rest/yacht/8651640/pictures/r1.jpg","https://ws.nausys.com/CBMS-external/rest/yacht/8651640/pictures/r2.jpg","https://ws.nausys.com/CBMS-external/rest/yacht/8651640/pictures/w1.jpg"],"wc":4,"featured_equipment":[{"image":"avtopilot.svg","name":"Automatski pilot"},{"image":"gps-ploter.svg","name":"GPS chart ploter"},{"image":"premcni-propeler.svg","name":"Premčni propeler"}]},"label":null,"location_from":{"name":"Dubrovnik, Komolac, ACI Marina Dubrovnik","region_name":"Dubrovnik regija","country_name":"Hrvaška","country_code":"HRV","country_iso_code":"HR","lat":"42.669700","lon":"18.124610"},"price_list_price":"950.00","client_price":"950.00","period_from":"2023-03-11","period_to":"2023-03-18","special_offer":null,"discount":"3.00","option":false},{"id":6722000,"yacht":{"id":1275,"yacht_model":{"name":"Sun Odyssey 519 - 5 cab.","category_name":"Jadrnica","loa":"15.75","beam":"4.69","draft":"2.28","cabins":5,"wc":3,"water_tank":615,"fuel_tank":240,"displacement":0},"cabins_total":6,"berths_total":12,"build_year":2016,"draft":"2.28","pictures":["https://ws.nausys.com/CBMS-external/rest/yacht/1204944/pictures/main.jpg","https://ws.nausys.com/CBMS-external/rest/yacht/1204944/pictures/layout.jpg","https://ws.nausys.com/CBMS-external/rest/yacht/1204944/pictures/n.jpg","https://ws.nausys.com/CBMS-external/rest/yacht/1204944/pictures/p.jpg","https://ws.nausys.com/CBMS-external/rest/yacht/1204944/pictures/p1.jpg","https://ws.nausys.com/CBMS-external/rest/yacht/1204944/pictures/p2.jpg","https://ws.nausys.com/CBMS-external/rest/yacht/1204944/pictures/p3.jpg","https://ws.nausys.com/CBMS-external/rest/yacht/1204944/pictures/r.jpg","https://ws.nausys.com/CBMS-external/rest/yacht/1204944/pictures/r1.jpg","https://ws.nausys.com/CBMS-external/rest/yacht/1204944/pictures/r2.jpg","https://ws.nausys.com/CBMS-external/rest/yacht/1204944/pictures/r3.jpg","https://ws.nausys.com/CBMS-external/rest/yacht/1204944/pictures/w.jpg","https://ws.nausys.com/CBMS-external/rest/yacht/1204944/pictures/w1.jpg","https://ws.nausys.com/CBMS-external/rest/yacht/1204944/pictures/w2.jpg"],"wc":3,"featured_equipment":[{"image":"avtopilot.svg","name":"Automatski pilot"},{"image":"gps-ploter.svg","name":"GPS chart plotter - cockpit"},{"image":"premcni-propeler.svg","name":"Premčni propeler"}]},"label":null,"location_from":{"name":"Dubrovnik, Komolac, ACI Marina Dubrovnik","region_name":"Dubrovnik regija","country_name":"Hrvaška","country_code":"HRV","country_iso_code":"HR","lat":"42.669700","lon":"18.124610"},"price_list_price":"1500.00","client_price":"1500.00","period_from":"2023-03-11","period_to":"2023-03-18","special_offer":null,"discount":"3.00","option":false},{"id":6722070,"yacht":{"id":1133,"yacht_model":{"name":"Hanse 575 - 5 + 1 cab.","category_name":"Jadrnica","loa":"17.15","beam":"5.20","draft":"2.85","cabins":6,"wc":4,"water_tank":0,"fuel_tank":0,"displacement":0},"cabins_total":6,"berths_total":12,"build_year":2016,"draft":"2.85","pictures":["https://ws.nausys.com/CBMS-external/rest/yacht/1158271/pictures/main.jpg","https://ws.nausys.com/CBMS-external/rest/yacht/1158271/pictures/layout.jpg","https://ws.nausys.com/CBMS-external/rest/yacht/1158271/pictures/n1.jpg","https://ws.nausys.com/CBMS-external/rest/yacht/1158271/pictures/n2.jpg","https://ws.nausys.com/CBMS-external/rest/yacht/1158271/pictures/n3.jpg","https://ws.nausys.com/CBMS-external/rest/yacht/1158271/pictures/n4.jpg","https://ws.nausys.com/CBMS-external/rest/yacht/1158271/pictures/n5.jpg","https://ws.nausys.com/CBMS-external/rest/yacht/1158271/pictures/n6.jpg","https://ws.nausys.com/CBMS-external/rest/yacht/1158271/pictures/p.jpg","https://ws.nausys.com/CBMS-external/rest/yacht/1158271/pictures/p1.jpg","https://ws.nausys.com/CBMS-external/rest/yacht/1158271/pictures/p2.jpg","https://ws.nausys.com/CBMS-external/rest/yacht/1158271/pictures/p3.jpg","https://ws.nausys.com/CBMS-external/rest/yacht/1158271/pictures/p4.jpg","https://ws.nausys.com/CBMS-external/rest/yacht/1158271/pictures/p5.jpg","https://ws.nausys.com/CBMS-external/rest/yacht/1158271/pictures/p6.jpg","https://ws.nausys.com/CBMS-external/rest/yacht/1158271/pictures/p7.jpg","https://ws.nausys.com/CBMS-external/rest/yacht/1158271/pictures/p8.jpg","https://ws.nausys.com/CBMS-external/rest/yacht/1158271/pictures/r.jpg"],"wc":3,"featured_equipment":[{"image":"avtopilot.svg","name":"Automatski pilot"},{"image":"gps-ploter.svg","name":"GPS chart plotter - cockpit"},{"image":"premcni-propeler.svg","name":"Premčni propeler"},{"image":"generator.svg","name":"Generator"}]},"label":null,"location_from":{"name":"Dubrovnik, Komolac, ACI Marina Dubrovnik","region_name":"Dubrovnik regija","country_name":"Hrvaška","country_code":"HRV","country_iso_code":"HR","lat":"42.669700","lon":"18.124610"},"price_list_price":"2000.00","client_price":"2000.00","period_from":"2023-03-11","period_to":"2023-03-18","special_offer":null,"discount":"3.00","option":false},{"id":6722081,"yacht":{"id":6032,"yacht_model":{"name":"Fountaine Pajot Lucia 40","category_name":"Katamaran","loa":"11.73","beam":"6.63","draft":"1.20","cabins":4,"wc":4,"water_tank":0,"fuel_tank":0,"displacement":0},"cabins_total":4,"berths_total":10,"build_year":2019,"draft":"1.20","pictures":["https://ws.nausys.com/CBMS-external/rest/yacht/8721631/pictures/main.jpg","https://ws.nausys.com/CBMS-external/rest/yacht/8721631/pictures/layout.jpg","https://ws.nausys.com/CBMS-external/rest/yacht/8721631/pictures/n1.jpg","https://ws.nausys.com/CBMS-external/rest/yacht/8721631/pictures/n2.jpg","https://ws.nausys.com/CBMS-external/rest/yacht/8721631/pictures/n3.jpg","https://ws.nausys.com/CBMS-external/rest/yacht/8721631/pictures/n4.jpg","https://ws.nausys.com/CBMS-external/rest/yacht/8721631/pictures/n5.jpg","https://ws.nausys.com/CBMS-external/rest/yacht/8721631/pictures/n6.jpg","https://ws.nausys.com/CBMS-external/rest/yacht/8721631/pictures/n7.jpg","https://ws.nausys.com/CBMS-external/rest/yacht/8721631/pictures/n8.jpg","https://ws.nausys.com/CBMS-external/rest/yacht/8721631/pictures/p1.jpg","https://ws.nausys.com/CBMS-external/rest/yacht/8721631/pictures/p2.jpg","https://ws.nausys.com/CBMS-external/rest/yacht/8721631/pictures/p4.jpg","https://ws.nausys.com/CBMS-external/rest/yacht/8721631/pictures/r1.jpg","https://ws.nausys.com/CBMS-external/rest/yacht/8721631/pictures/r2.jpg","https://ws.nausys.com/CBMS-external/rest/yacht/8721631/pictures/r3.jpg","https://ws.nausys.com/CBMS-external/rest/yacht/8721631/pictures/r4.jpg","https://ws.nausys.com/CBMS-external/rest/yacht/8721631/pictures/r5.jpg","https://ws.nausys.com/CBMS-external/rest/yacht/8721631/pictures/r6.jpg","https://ws.nausys.com/CBMS-external/rest/yacht/8721631/pictures/r7.jpg","https://ws.nausys.com/CBMS-external/rest/yacht/8721631/pictures/r8.jpg","https://ws.nausys.com/CBMS-external/rest/yacht/8721631/pictures/w1.jpg","https://ws.nausys.com/CBMS-external/rest/yacht/8721631/pictures/w2.jpg","https://ws.nausys.com/CBMS-external/rest/yacht/8721631/pictures/w3.jpg","https://ws.nausys.com/CBMS-external/rest/yacht/8721631/pictures/w4.jpg","https://ws.nausys.com/CBMS-external/rest/yacht/8721631/pictures/w5.jpg"],"wc":4,"featured_equipment":[{"image":"avtopilot.svg","name":"Automatski pilot"},{"image":"gps-ploter.svg","name":"GPS chart ploter"}]},"label":null,"location_from":{"name":"Dubrovnik, Komolac, ACI Marina Dubrovnik","region_name":"Dubrovnik regija","country_name":"Hrvaška","country_code":"HRV","country_iso_code":"HR","lat":"42.669700","lon":"18.124610"},"price_list_price":"1200.00","client_price":"1200.00","period_from":"2023-03-11","period_to":"2023-03-18","special_offer":null,"discount":"3.00","option":false},{"id":6722213,"yacht":{"id":1171,"yacht_model":{"name":"Lagoon 42 - 4 + 2 cab.","category_name":"Katamaran","loa":"12.80","beam":"7.70","draft":"1.00","cabins":6,"wc":4,"water_tank":600,"fuel_tank":600,"displacement":0},"cabins_total":6,"berths_total":12,"build_year":2018,"draft":"1.25","pictures":["https://ws.nausys.com/CBMS-external/rest/yacht/4652640/pictures/main.jpg","https://ws.nausys.com/CBMS-external/rest/yacht/4652640/pictures/layout.jpg","https://ws.nausys.com/CBMS-external/rest/yacht/4652640/pictures/n.jpg","https://ws.nausys.com/CBMS-external/rest/yacht/4652640/pictures/n1.jpg","https://ws.nausys.com/CBMS-external/rest/yacht/4652640/pictures/n2.jpg","https://ws.nausys.com/CBMS-external/rest/yacht/4652640/pictures/n3.jpg","https://ws.nausys.com/CBMS-external/rest/yacht/4652640/pictures/n4.jpg","https://ws.nausys.com/CBMS-external/rest/yacht/4652640/pictures/n5.jpg","https://ws.nausys.com/CBMS-external/rest/yacht/4652640/pictures/nn.jpg","https://ws.nausys.com/CBMS-external/rest/yacht/4652640/pictures/p.jpg","https://ws.nausys.com/CBMS-external/rest/yacht/4652640/pictures/p1.jpg","https://ws.nausys.com/CBMS-external/rest/yacht/4652640/pictures/p2.jpg","https://ws.nausys.com/CBMS-external/rest/yacht/4652640/pictures/p3.jpg","https://ws.nausys.com/CBMS-external/rest/yacht/4652640/pictures/r.jpg","https://ws.nausys.com/CBMS-external/rest/yacht/4652640/pictures/w.jpg","https://ws.nausys.com/CBMS-external/rest/yacht/4652640/pictures/w1.jpg","https://ws.nausys.com/CBMS-external/rest/yacht/4652640/pictures/w2.jpg","https://ws.nausys.com/CBMS-external/rest/yacht/4652640/pictures/w3.jpg","https://ws.nausys.com/CBMS-external/rest/yacht/4652640/pictures/w4.jpg","https://ws.nausys.com/CBMS-external/rest/yacht/4652640/pictures/w6.jpg","https://ws.nausys.com/CBMS-external/rest/yacht/4652640/pictures/w7.jpg"],"wc":4,"featured_equipment":[{"image":"avtopilot.svg","name":"Automatski pilot"},{"image":"gps-ploter.svg","name":"GPS chart ploter"}]},"label":null,"location_from":{"name":"Dubrovnik, Komolac, ACI Marina Dubrovnik","region_name":"Dubrovnik regija","country_name":"Hrvaška","country_code":"HRV","country_iso_code":"HR","lat":"42.669700","lon":"18.124610"},"price_list_price":"1400.00","client_price":"1400.00","period_from":"2023-03-11","period_to":"2023-03-18","special_offer":null,"discount":"3.00","option":false},{"id":6722290,"yacht":{"id":4194,"yacht_model":{"name":"Lagoon 42 - 4 + 2 cab.","category_name":"Katamaran","loa":"12.80","beam":"7.70","draft":"1.00","cabins":6,"wc":4,"water_tank":600,"fuel_tank":600,"displacement":0},"cabins_total":6,"berths_total":12,"build_year":2018,"draft":"1.00","pictures":["https://ws.nausys.com/CBMS-external/rest/yacht/4884562/pictures/main.jpg","https://ws.nausys.com/CBMS-external/rest/yacht/4884562/pictures/layout.jpg","https://ws.nausys.com/CBMS-external/rest/yacht/4884562/pictures/n3.jpg","https://ws.nausys.com/CBMS-external/rest/yacht/4884562/pictures/n4.jpg","https://ws.nausys.com/CBMS-external/rest/yacht/4884562/pictures/n5.jpg","https://ws.nausys.com/CBMS-external/rest/yacht/4884562/pictures/p.jpg","https://ws.nausys.com/CBMS-external/rest/yacht/4884562/pictures/p1.jpg","https://ws.nausys.com/CBMS-external/rest/yacht/4884562/pictures/p2.jpg","https://ws.nausys.com/CBMS-external/rest/yacht/4884562/pictures/r.jpg","https://ws.nausys.com/CBMS-external/rest/yacht/4884562/pictures/r2.jpg","https://ws.nausys.com/CBMS-external/rest/yacht/4884562/pictures/r3.jpg","https://ws.nausys.com/CBMS-external/rest/yacht/4884562/pictures/r4.jpg","https://ws.nausys.com/CBMS-external/rest/yacht/4884562/pictures/w.jpg","https://ws.nausys.com/CBMS-external/rest/yacht/4884562/pictures/w1.jpg","https://ws.nausys.com/CBMS-external/rest/yacht/4884562/pictures/w2.jpg","https://ws.nausys.com/CBMS-external/rest/yacht/4884562/pictures/w4.jpg","https://ws.nausys.com/CBMS-external/rest/yacht/4884562/pictures/w6.jpg","https://ws.nausys.com/CBMS-external/rest/yacht/4884562/pictures/w7.jpg"],"wc":4,"featured_equipment":[{"image":"avtopilot.svg","name":"Automatski pilot"},{"image":"gps-ploter.svg","name":"GPS chart ploter"}]},"label":null,"location_from":{"name":"Dubrovnik, Komolac, ACI Marina Dubrovnik","region_name":"Dubrovnik regija","country_name":"Hrvaška","country_code":"HRV","country_iso_code":"HR","lat":"42.669700","lon":"18.124610"},"price_list_price":"1400.00","client_price":"1400.00","period_from":"2023-03-11","period_to":"2023-03-18","special_offer":null,"discount":"3.00","option":false},{"id":6722389,"yacht":{"id":5059,"yacht_model":{"name":"Lagoon 42 - 4 + 2 cab.","category_name":"Katamaran","loa":"12.80","beam":"7.70","draft":"1.00","cabins":6,"wc":4,"water_tank":600,"fuel_tank":600,"displacement":0},"cabins_total":6,"berths_total":12,"build_year":2019,"draft":"1.00","pictures":["https://ws.nausys.com/CBMS-external/rest/yacht/7889366/pictures/main.jpg","https://ws.nausys.com/CBMS-external/rest/yacht/7889366/pictures/layout.jpg","https://ws.nausys.com/CBMS-external/rest/yacht/7889366/pictures/n3.jpg","https://ws.nausys.com/CBMS-external/rest/yacht/7889366/pictures/n4.jpg","https://ws.nausys.com/CBMS-external/rest/yacht/7889366/pictures/n5.jpg","https://ws.nausys.com/CBMS-external/rest/yacht/7889366/pictures/p.jpg","https://ws.nausys.com/CBMS-external/rest/yacht/7889366/pictures/p1.jpg","https://ws.nausys.com/CBMS-external/rest/yacht/7889366/pictures/p2.jpg","https://ws.nausys.com/CBMS-external/rest/yacht/7889366/pictures/r.jpg","https://ws.nausys.com/CBMS-external/rest/yacht/7889366/pictures/r2.jpg","https://ws.nausys.com/CBMS-external/rest/yacht/7889366/pictures/r3.jpg","https://ws.nausys.com/CBMS-external/rest/yacht/7889366/pictures/r4.jpg","https://ws.nausys.com/CBMS-external/rest/yacht/7889366/pictures/w.jpg","https://ws.nausys.com/CBMS-external/rest/yacht/7889366/pictures/w1.jpg","https://ws.nausys.com/CBMS-external/rest/yacht/7889366/pictures/w2.jpg","https://ws.nausys.com/CBMS-external/rest/yacht/7889366/pictures/w4.jpg","https://ws.nausys.com/CBMS-external/rest/yacht/7889366/pictures/w6.jpg","https://ws.nausys.com/CBMS-external/rest/yacht/7889366/pictures/w7.jpg"],"wc":4,"featured_equipment":[{"image":"avtopilot.svg","name":"Automatski pilot"},{"image":"gps-ploter.svg","name":"GPS chart ploter"},{"image":"solarni-kolektorji.svg","name":"Sončni paneli"}]},"label":null,"location_from":{"name":"Dubrovnik, Komolac, ACI Marina Dubrovnik","region_name":"Dubrovnik regija","country_name":"Hrvaška","country_code":"HRV","country_iso_code":"HR","lat":"42.669700","lon":"18.124610"},"price_list_price":"1400.00","client_price":"1400.00","period_from":"2023-03-11","period_to":"2023-03-18","special_offer":null,"discount":"3.00","option":false},{"id":6722456,"yacht":{"id":1184,"yacht_model":{"name":"Lagoon 52 F - 6 + 2 cab.","category_name":"Katamaran","loa":"15.84","beam":"8.74","draft":"1.55","cabins":8,"wc":6,"water_tank":0,"fuel_tank":0,"displacement":0},"cabins_total":8,"berths_total":14,"build_year":2017,"draft":"1.55","pictures":["https://ws.nausys.com/CBMS-external/rest/yacht/1514446/pictures/main.jpg","https://ws.nausys.com/CBMS-external/rest/yacht/1514446/pictures/layout.jpg","https://ws.nausys.com/CBMS-external/rest/yacht/1514446/pictures/n.jpg","https://ws.nausys.com/CBMS-external/rest/yacht/1514446/pictures/n1.jpg","https://ws.nausys.com/CBMS-external/rest/yacht/1514446/pictures/n10.jpg","https://ws.nausys.com/CBMS-external/rest/yacht/1514446/pictures/n2.jpg","https://ws.nausys.com/CBMS-external/rest/yacht/1514446/pictures/n3.jpg","https://ws.nausys.com/CBMS-external/rest/yacht/1514446/pictures/n4.jpg","https://ws.nausys.com/CBMS-external/rest/yacht/1514446/pictures/n5.jpg","https://ws.nausys.com/CBMS-external/rest/yacht/1514446/pictures/n6.jpg","https://ws.nausys.com/CBMS-external/rest/yacht/1514446/pictures/n7.jpg","https://ws.nausys.com/CBMS-external/rest/yacht/1514446/pictures/n8.jpg","https://ws.nausys.com/CBMS-external/rest/yacht/1514446/pictures/n9.jpg","https://ws.nausys.com/CBMS-external/rest/yacht/1514446/pictures/p.jpg","https://ws.nausys.com/CBMS-external/rest/yacht/1514446/pictures/p1.jpg","https://ws.nausys.com/CBMS-external/rest/yacht/1514446/pictures/p2.jpg","https://ws.nausys.com/CBMS-external/rest/yacht/1514446/pictures/r.jpg","https://ws.nausys.com/CBMS-external/rest/yacht/1514446/pictures/r1.jpg","https://ws.nausys.com/CBMS-external/rest/yacht/1514446/pictures/r2.jpg","https://ws.nausys.com/CBMS-external/rest/yacht/1514446/pictures/r3.jpg","https://ws.nausys.com/CBMS-external/rest/yacht/1514446/pictures/r4.jpg","https://ws.nausys.com/CBMS-external/rest/yacht/1514446/pictures/r5.jpg","https://ws.nausys.com/CBMS-external/rest/yacht/1514446/pictures/r6.jpg","https://ws.nausys.com/CBMS-external/rest/yacht/1514446/pictures/r7.jpg","https://ws.nausys.com/CBMS-external/rest/yacht/1514446/pictures/r8.jpg","https://ws.nausys.com/CBMS-external/rest/yacht/1514446/pictures/w.jpg","https://ws.nausys.com/CBMS-external/rest/yacht/1514446/pictures/w1.jpg","https://ws.nausys.com/CBMS-external/rest/yacht/1514446/pictures/w2.jpg","https://ws.nausys.com/CBMS-external/rest/yacht/1514446/pictures/w3.jpg","https://ws.nausys.com/CBMS-external/rest/yacht/1514446/pictures/w4.jpg","https://ws.nausys.com/CBMS-external/rest/yacht/1514446/pictures/w5.jpg"],"wc":6,"featured_equipment":[{"image":"avtopilot.svg","name":"Automatski pilot"},{"image":"gps-ploter.svg","name":"GPS chart ploter"},{"image":"gps-ploter.svg","name":"GPS chart plotter - cockpit"},{"image":"generator.svg","name":"Generator"}]},"label":null,"location_from":{"name":"Dubrovnik, Komolac, ACI Marina Dubrovnik","region_name":"Dubrovnik regija","country_name":"Hrvaška","country_code":"HRV","country_iso_code":"HR","lat":"42.669700","lon":"18.124610"},"price_list_price":"3000.00","client_price":"3000.00","period_from":"2023-03-11","period_to":"2023-03-18","special_offer":null,"discount":"3.00","option":false},{"id":6722495,"yacht":{"id":5286,"yacht_model":{"name":"Sun Odyssey 440 - 3 cab.","category_name":"Jadrnica","loa":"13.00","beam":"4.29","draft":"2.29","cabins":3,"wc":2,"water_tank":0,"fuel_tank":0,"displacement":0},"cabins_total":3,"berths_total":8,"build_year":2019,"draft":"2.20","pictures":["https://ws.nausys.com/CBMS-external/rest/yacht/8327705/pictures/main.jpg","https://ws.nausys.com/CBMS-external/rest/yacht/8327705/pictures/layout.jpg","https://ws.nausys.com/CBMS-external/rest/yacht/8327705/pictures/n1.jpg","https://ws.nausys.com/CBMS-external/rest/yacht/8327705/pictures/n3.jpg","https://ws.nausys.com/CBMS-external/rest/yacht/8327705/pictures/p.jpg","https://ws.nausys.com/CBMS-external/rest/yacht/8327705/pictures/p1.jpg","https://ws.nausys.com/CBMS-external/rest/yacht/8327705/pictures/p3.jpg","https://ws.nausys.com/CBMS-external/rest/yacht/8327705/pictures/p4.jpg","https://ws.nausys.com/CBMS-external/rest/yacht/8327705/pictures/p5.jpg","https://ws.nausys.com/CBMS-external/rest/yacht/8327705/pictures/r1.jpg","https://ws.nausys.com/CBMS-external/rest/yacht/8327705/pictures/r3.jpg","https://ws.nausys.com/CBMS-external/rest/yacht/8327705/pictures/r4.jpg","https://ws.nausys.com/CBMS-external/rest/yacht/8327705/pictures/w.jpg","https://ws.nausys.com/CBMS-external/rest/yacht/8327705/pictures/w1.jpg"],"wc":2,"featured_equipment":[{"image":"avtopilot.svg","name":"Automatski pilot"},{"image":"gps-ploter.svg","name":"GPS chart ploter"},{"image":"premcni-propeler.svg","name":"Premčni propeler"}]},"label":null,"location_from":{"name":"Dubrovnik, Komolac, ACI Marina Dubrovnik","region_name":"Dubrovnik regija","country_name":"Hrvaška","country_code":"HRV","country_iso_code":"HR","lat":"42.669700","lon":"18.124610"},"price_list_price":"950.00","client_price":"950.00","period_from":"2023-03-11","period_to":"2023-03-18","special_offer":null,"discount":"3.00","option":false},{"id":6722563,"yacht":{"id":1142,"yacht_model":{"name":"Jeanneau 54 - 4 + 1 cab.","category_name":"Jadrnica","loa":"16.16","beam":"4.92","draft":"2.24","cabins":5,"wc":5,"water_tank":724,"fuel_tank":240,"displacement":0},"cabins_total":5,"berths_total":11,"build_year":2016,"draft":"2.24","pictures":["https://ws.nausys.com/CBMS-external/rest/yacht/1080415/pictures/main.jpg","https://ws.nausys.com/CBMS-external/rest/yacht/1080415/pictures/layout.jpg","https://ws.nausys.com/CBMS-external/rest/yacht/1080415/pictures/n1.jpg","https://ws.nausys.com/CBMS-external/rest/yacht/1080415/pictures/p.jpg","https://ws.nausys.com/CBMS-external/rest/yacht/1080415/pictures/p1.jpg","https://ws.nausys.com/CBMS-external/rest/yacht/1080415/pictures/p2.jpg","https://ws.nausys.com/CBMS-external/rest/yacht/1080415/pictures/p3.jpg","https://ws.nausys.com/CBMS-external/rest/yacht/1080415/pictures/p4.jpg","https://ws.nausys.com/CBMS-external/rest/yacht/1080415/pictures/p5.jpg","https://ws.nausys.com/CBMS-external/rest/yacht/1080415/pictures/r.jpg","https://ws.nausys.com/CBMS-external/rest/yacht/1080415/pictures/r1.jpg","https://ws.nausys.com/CBMS-external/rest/yacht/1080415/pictures/r2.jpg","https://ws.nausys.com/CBMS-external/rest/yacht/1080415/pictures/r3.jpg","https://ws.nausys.com/CBMS-external/rest/yacht/1080415/pictures/w2.jpg"],"wc":4,"featured_equipment":[{"image":"avtopilot.svg","name":"Automatski pilot"},{"image":"gps-ploter.svg","name":"GPS chart plotter - cockpit"},{"image":"premcni-propeler.svg","name":"Premčni propeler"}]},"label":null,"location_from":{"name":"Dubrovnik, Komolac, ACI Marina Dubrovnik","region_name":"Dubrovnik regija","country_name":"Hrvaška","country_code":"HRV","country_iso_code":"HR","lat":"42.669700","lon":"18.124610"},"price_list_price":"1500.00","client_price":"1500.00","period_from":"2023-03-11","period_to":"2023-03-18","special_offer":null,"discount":"3.00","option":false}]}