{"count":302,"next":"https://thesailmaster.si/api/search/?destinations=region-112-%C5%A0ibenska+regija&limit=10&offset=10","previous":null,"results":[{"id":7113022,"yacht":{"id":2257,"yacht_model":{"name":"Bavaria Cruiser 41 - 3 cab.","category_name":"Jadrnica","loa":"12.35","beam":"3.95","draft":"1.65","cabins":3,"wc":2,"water_tank":0,"fuel_tank":0,"displacement":0},"cabins_total":3,"berths_total":7,"build_year":2016,"draft":"2.09","pictures":["https://ws.nausys.com/CBMS-external/rest/yacht/1050259/pictures/main.jpg","https://ws.nausys.com/CBMS-external/rest/yacht/1050259/pictures/layout.jpg","https://ws.nausys.com/CBMS-external/rest/yacht/1050259/pictures/n1.jpg","https://ws.nausys.com/CBMS-external/rest/yacht/1050259/pictures/n2.jpg","https://ws.nausys.com/CBMS-external/rest/yacht/1050259/pictures/p.jpg","https://ws.nausys.com/CBMS-external/rest/yacht/1050259/pictures/p1.jpg","https://ws.nausys.com/CBMS-external/rest/yacht/1050259/pictures/p3.jpg","https://ws.nausys.com/CBMS-external/rest/yacht/1050259/pictures/r.jpg","https://ws.nausys.com/CBMS-external/rest/yacht/1050259/pictures/r1.jpg","https://ws.nausys.com/CBMS-external/rest/yacht/1050259/pictures/r2.jpg","https://ws.nausys.com/CBMS-external/rest/yacht/1050259/pictures/r3.jpg","https://ws.nausys.com/CBMS-external/rest/yacht/1050259/pictures/r4.jpg","https://ws.nausys.com/CBMS-external/rest/yacht/1050259/pictures/w.jpg","https://ws.nausys.com/CBMS-external/rest/yacht/1050259/pictures/w1.png"],"wc":2,"featured_equipment":[{"image":"avtopilot.svg","name":"Automatski pilot"},{"image":"gps-ploter.svg","name":"GPS chart ploter"},{"image":"premcni-propeler.svg","name":"Premčni propeler"}]},"label":null,"location_from":{"name":"Marina Hramina, Murter","region_name":"Šibenska regija","country_name":"Hrvaška","country_code":"HRV","country_iso_code":"HR","lat":"43.826550","lon":"15.591810"},"price_list_price":"1900.00","client_price":"1624.50","period_from":"2023-03-11","period_to":"2023-03-18","special_offer":null,"discount":"6.00","option":false},{"id":7113023,"yacht":{"id":2301,"yacht_model":{"name":"Bavaria Cruiser 50","category_name":"Jadrnica","loa":"15.57","beam":"4.63","draft":"1.85","cabins":5,"wc":3,"water_tank":0,"fuel_tank":0,"displacement":0},"cabins_total":5,"berths_total":11,"build_year":2011,"draft":"2.30","pictures":["https://ws.nausys.com/CBMS-external/rest/yachtModel/102807/pictures/main.jpg","https://ws.nausys.com/CBMS-external/rest/yachtModel/102807/pictures/layout.jpg","https://ws.nausys.com/CBMS-external/rest/yacht/515095/pictures/_DSC.jpg","https://ws.nausys.com/CBMS-external/rest/yacht/515095/pictures/_DSC5136.jpg","https://ws.nausys.com/CBMS-external/rest/yacht/515095/pictures/_DSC5139.jpg","https://ws.nausys.com/CBMS-external/rest/yacht/515095/pictures/_DSC5191.jpg","https://ws.nausys.com/CBMS-external/rest/yacht/515095/pictures/n.jpg","https://ws.nausys.com/CBMS-external/rest/yacht/515095/pictures/n1.jpg","https://ws.nausys.com/CBMS-external/rest/yacht/515095/pictures/n2.jpg","https://ws.nausys.com/CBMS-external/rest/yacht/515095/pictures/n3.jpg","https://ws.nausys.com/CBMS-external/rest/yacht/515095/pictures/n4.jpg","https://ws.nausys.com/CBMS-external/rest/yacht/515095/pictures/n5.jpg","https://ws.nausys.com/CBMS-external/rest/yacht/515095/pictures/n6.jpg","https://ws.nausys.com/CBMS-external/rest/yacht/515095/pictures/n7.jpg","https://ws.nausys.com/CBMS-external/rest/yacht/515095/pictures/n8.jpg","https://ws.nausys.com/CBMS-external/rest/yacht/515095/pictures/n9.jpg","https://ws.nausys.com/CBMS-external/rest/yacht/515095/pictures/p.jpg","https://ws.nausys.com/CBMS-external/rest/yacht/515095/pictures/p1.jpg","https://ws.nausys.com/CBMS-external/rest/yacht/515095/pictures/p2.jpg","https://ws.nausys.com/CBMS-external/rest/yacht/515095/pictures/p3.jpg","https://ws.nausys.com/CBMS-external/rest/yacht/515095/pictures/r.jpg","https://ws.nausys.com/CBMS-external/rest/yacht/515095/pictures/r1.jpg","https://ws.nausys.com/CBMS-external/rest/yacht/515095/pictures/r2.jpg","https://ws.nausys.com/CBMS-external/rest/yacht/515095/pictures/r3.jpg","https://ws.nausys.com/CBMS-external/rest/yacht/515095/pictures/r4.jpg","https://ws.nausys.com/CBMS-external/rest/yacht/515095/pictures/w.jpg","https://ws.nausys.com/CBMS-external/rest/yacht/515095/pictures/w1.jpg","https://ws.nausys.com/CBMS-external/rest/yacht/515095/pictures/w2.jpg"],"wc":3,"featured_equipment":[{"image":"avtopilot.svg","name":"Automatski pilot"},{"image":"gps-ploter.svg","name":"GPS chart ploter"},{"image":"premcni-propeler.svg","name":"Premčni propeler"}]},"label":null,"location_from":{"name":"Marina Hramina, Murter","region_name":"Šibenska regija","country_name":"Hrvaška","country_code":"HRV","country_iso_code":"HR","lat":"43.826550","lon":"15.591810"},"price_list_price":"2200.00","client_price":"1881.00","period_from":"2023-03-11","period_to":"2023-03-18","special_offer":null,"discount":"6.00","option":false},{"id":7113024,"yacht":{"id":2272,"yacht_model":{"name":"Bavaria Cruiser 46 - 4 cab.","category_name":"Jadrnica","loa":"14.27","beam":"4.35","draft":"2.10","cabins":4,"wc":3,"water_tank":0,"fuel_tank":0,"displacement":0},"cabins_total":4,"berths_total":9,"build_year":2014,"draft":"2.10","pictures":["https://ws.nausys.com/CBMS-external/rest/yacht/580590/pictures/main.jpg","https://ws.nausys.com/CBMS-external/rest/yacht/580590/pictures/layout.jpg","https://ws.nausys.com/CBMS-external/rest/yacht/580590/pictures/n.jpg","https://ws.nausys.com/CBMS-external/rest/yacht/580590/pictures/n1.jpg","https://ws.nausys.com/CBMS-external/rest/yacht/580590/pictures/n2.jpg","https://ws.nausys.com/CBMS-external/rest/yacht/580590/pictures/n4.jpg","https://ws.nausys.com/CBMS-external/rest/yacht/580590/pictures/n5.jpg","https://ws.nausys.com/CBMS-external/rest/yacht/580590/pictures/p.jpg","https://ws.nausys.com/CBMS-external/rest/yacht/580590/pictures/p1.jpg","https://ws.nausys.com/CBMS-external/rest/yacht/580590/pictures/p2.jpg","https://ws.nausys.com/CBMS-external/rest/yacht/580590/pictures/p3.jpg","https://ws.nausys.com/CBMS-external/rest/yacht/580590/pictures/p4.jpg","https://ws.nausys.com/CBMS-external/rest/yacht/580590/pictures/p5.jpg","https://ws.nausys.com/CBMS-external/rest/yacht/580590/pictures/r.jpg","https://ws.nausys.com/CBMS-external/rest/yacht/580590/pictures/r1.jpg","https://ws.nausys.com/CBMS-external/rest/yacht/580590/pictures/r3.jpg","https://ws.nausys.com/CBMS-external/rest/yacht/580590/pictures/r4.jpg","https://ws.nausys.com/CBMS-external/rest/yacht/580590/pictures/w.jpg"],"wc":3,"featured_equipment":[{"image":"avtopilot.svg","name":"Automatski pilot"},{"image":"gps-ploter.svg","name":"GPS chart ploter"},{"image":"premcni-propeler.svg","name":"Premčni propeler"}]},"label":null,"location_from":{"name":"Marina Hramina, Murter","region_name":"Šibenska regija","country_name":"Hrvaška","country_code":"HRV","country_iso_code":"HR","lat":"43.826550","lon":"15.591810"},"price_list_price":"2000.00","client_price":"1710.00","period_from":"2023-03-11","period_to":"2023-03-18","special_offer":null,"discount":"6.00","option":false},{"id":7113026,"yacht":{"id":2300,"yacht_model":{"name":"Bavaria Cruiser 50","category_name":"Jadrnica","loa":"15.57","beam":"4.63","draft":"1.85","cabins":5,"wc":3,"water_tank":0,"fuel_tank":0,"displacement":0},"cabins_total":5,"berths_total":11,"build_year":2011,"draft":"2.30","pictures":["https://ws.nausys.com/CBMS-external/rest/yachtModel/102807/pictures/main.jpg","https://ws.nausys.com/CBMS-external/rest/yachtModel/102807/pictures/layout.jpg","https://ws.nausys.com/CBMS-external/rest/yacht/515151/pictures/_DSC.jpg","https://ws.nausys.com/CBMS-external/rest/yacht/515151/pictures/_DSC5139.jpg","https://ws.nausys.com/CBMS-external/rest/yacht/515151/pictures/n1.jpg","https://ws.nausys.com/CBMS-external/rest/yacht/515151/pictures/n2.jpg","https://ws.nausys.com/CBMS-external/rest/yacht/515151/pictures/n3.jpg","https://ws.nausys.com/CBMS-external/rest/yacht/515151/pictures/n4.jpg","https://ws.nausys.com/CBMS-external/rest/yacht/515151/pictures/n5.jpg","https://ws.nausys.com/CBMS-external/rest/yacht/515151/pictures/n6.jpg","https://ws.nausys.com/CBMS-external/rest/yacht/515151/pictures/n7.jpg","https://ws.nausys.com/CBMS-external/rest/yacht/515151/pictures/n8.jpg","https://ws.nausys.com/CBMS-external/rest/yacht/515151/pictures/n9.jpg","https://ws.nausys.com/CBMS-external/rest/yacht/515151/pictures/p.jpg","https://ws.nausys.com/CBMS-external/rest/yacht/515151/pictures/p1.jpg","https://ws.nausys.com/CBMS-external/rest/yacht/515151/pictures/p2.jpg","https://ws.nausys.com/CBMS-external/rest/yacht/515151/pictures/p3.jpg","https://ws.nausys.com/CBMS-external/rest/yacht/515151/pictures/PNAV2074.jpg","https://ws.nausys.com/CBMS-external/rest/yacht/515151/pictures/r.jpg","https://ws.nausys.com/CBMS-external/rest/yacht/515151/pictures/r1.jpg","https://ws.nausys.com/CBMS-external/rest/yacht/515151/pictures/r2.jpg","https://ws.nausys.com/CBMS-external/rest/yacht/515151/pictures/r3.jpg","https://ws.nausys.com/CBMS-external/rest/yacht/515151/pictures/r4.jpg","https://ws.nausys.com/CBMS-external/rest/yacht/515151/pictures/w.jpg","https://ws.nausys.com/CBMS-external/rest/yacht/515151/pictures/w1.jpg","https://ws.nausys.com/CBMS-external/rest/yacht/515151/pictures/w2.jpg"],"wc":3,"featured_equipment":[{"image":"avtopilot.svg","name":"Automatski pilot"},{"image":"gps-ploter.svg","name":"GPS chart ploter"},{"image":"premcni-propeler.svg","name":"Premčni propeler"}]},"label":null,"location_from":{"name":"Marina Hramina, Murter","region_name":"Šibenska regija","country_name":"Hrvaška","country_code":"HRV","country_iso_code":"HR","lat":"43.826550","lon":"15.591810"},"price_list_price":"2200.00","client_price":"1881.00","period_from":"2023-03-11","period_to":"2023-03-18","special_offer":null,"discount":"6.00","option":false},{"id":7113028,"yacht":{"id":2282,"yacht_model":{"name":"Bavaria Cruiser 46 - 4 cab.","category_name":"Jadrnica","loa":"14.27","beam":"4.35","draft":"2.10","cabins":4,"wc":3,"water_tank":0,"fuel_tank":0,"displacement":0},"cabins_total":4,"berths_total":9,"build_year":2015,"draft":"2.10","pictures":["https://ws.nausys.com/CBMS-external/rest/yacht/833664/pictures/main.jpg","https://ws.nausys.com/CBMS-external/rest/yacht/833664/pictures/layout.jpg","https://ws.nausys.com/CBMS-external/rest/yacht/833664/pictures/n.jpg","https://ws.nausys.com/CBMS-external/rest/yacht/833664/pictures/n1.jpg","https://ws.nausys.com/CBMS-external/rest/yacht/833664/pictures/n2.jpg","https://ws.nausys.com/CBMS-external/rest/yacht/833664/pictures/n3.jpg","https://ws.nausys.com/CBMS-external/rest/yacht/833664/pictures/n4.jpg","https://ws.nausys.com/CBMS-external/rest/yacht/833664/pictures/p.jpg","https://ws.nausys.com/CBMS-external/rest/yacht/833664/pictures/p1.jpg","https://ws.nausys.com/CBMS-external/rest/yacht/833664/pictures/p2.jpg","https://ws.nausys.com/CBMS-external/rest/yacht/833664/pictures/p3.jpg","https://ws.nausys.com/CBMS-external/rest/yacht/833664/pictures/p4.jpg","https://ws.nausys.com/CBMS-external/rest/yacht/833664/pictures/p5.jpg","https://ws.nausys.com/CBMS-external/rest/yacht/833664/pictures/r.jpg","https://ws.nausys.com/CBMS-external/rest/yacht/833664/pictures/r1.jpg","https://ws.nausys.com/CBMS-external/rest/yacht/833664/pictures/r3.jpg","https://ws.nausys.com/CBMS-external/rest/yacht/833664/pictures/r4.jpg","https://ws.nausys.com/CBMS-external/rest/yacht/833664/pictures/w.jpg"],"wc":3,"featured_equipment":[{"image":"avtopilot.svg","name":"Automatski pilot"},{"image":"gps-ploter.svg","name":"GPS chart ploter"},{"image":"premcni-propeler.svg","name":"Premčni propeler"}]},"label":null,"location_from":{"name":"Marina Hramina, Murter","region_name":"Šibenska regija","country_name":"Hrvaška","country_code":"HRV","country_iso_code":"HR","lat":"43.826550","lon":"15.591810"},"price_list_price":"2000.00","client_price":"1710.00","period_from":"2023-03-11","period_to":"2023-03-18","special_offer":null,"discount":"6.00","option":false},{"id":7113029,"yacht":{"id":2293,"yacht_model":{"name":"Bavaria Cruiser 46 - 4 cab.","category_name":"Jadrnica","loa":"14.27","beam":"4.35","draft":"2.10","cabins":4,"wc":3,"water_tank":0,"fuel_tank":0,"displacement":0},"cabins_total":4,"berths_total":9,"build_year":2018,"draft":"2.10","pictures":["https://ws.nausys.com/CBMS-external/rest/yachtModel/529354/pictures/main.jpg","https://ws.nausys.com/CBMS-external/rest/yachtModel/529354/pictures/layout.jpg","https://ws.nausys.com/CBMS-external/rest/yacht/3930048/pictures/_DSC5855.jpg","https://ws.nausys.com/CBMS-external/rest/yacht/3930048/pictures/_DSC5857.jpg","https://ws.nausys.com/CBMS-external/rest/yacht/3930048/pictures/_DSC5858.jpg","https://ws.nausys.com/CBMS-external/rest/yacht/3930048/pictures/_DSC5861.jpg","https://ws.nausys.com/CBMS-external/rest/yacht/3930048/pictures/_DSC5866.jpg","https://ws.nausys.com/CBMS-external/rest/yacht/3930048/pictures/_DSC5869.jpg","https://ws.nausys.com/CBMS-external/rest/yacht/3930048/pictures/_DSC5873.jpg","https://ws.nausys.com/CBMS-external/rest/yacht/3930048/pictures/_DSC5876.jpg","https://ws.nausys.com/CBMS-external/rest/yacht/3930048/pictures/_DSC5879.jpg","https://ws.nausys.com/CBMS-external/rest/yacht/3930048/pictures/_DSC5884.jpg","https://ws.nausys.com/CBMS-external/rest/yacht/3930048/pictures/_DSC5892.jpg","https://ws.nausys.com/CBMS-external/rest/yacht/3930048/pictures/_DSC5901.jpg","https://ws.nausys.com/CBMS-external/rest/yacht/3930048/pictures/_DSC5911.jpg","https://ws.nausys.com/CBMS-external/rest/yacht/3930048/pictures/_DSC6216.jpg","https://ws.nausys.com/CBMS-external/rest/yacht/3930048/pictures/_DSC6235.jpg","https://ws.nausys.com/CBMS-external/rest/yacht/3930048/pictures/B46CN lay out 2018.jpg","https://ws.nausys.com/CBMS-external/rest/yacht/3930048/pictures/PNAV6019.jpg"],"wc":3,"featured_equipment":[{"image":"avtopilot.svg","name":"Automatski pilot"},{"image":"gps-ploter.svg","name":"GPS chart ploter"},{"image":"premcni-propeler.svg","name":"Premčni propeler"}]},"label":null,"location_from":{"name":"Marina Hramina, Murter","region_name":"Šibenska regija","country_name":"Hrvaška","country_code":"HRV","country_iso_code":"HR","lat":"43.826550","lon":"15.591810"},"price_list_price":"2000.00","client_price":"1710.00","period_from":"2023-03-11","period_to":"2023-03-18","special_offer":null,"discount":"6.00","option":false},{"id":7113030,"yacht":{"id":2245,"yacht_model":{"name":"Bavaria 51 Cruiser","category_name":"Jadrnica","loa":"14.99","beam":"4.49","draft":"1.90","cabins":5,"wc":3,"water_tank":0,"fuel_tank":0,"displacement":0},"cabins_total":5,"berths_total":11,"build_year":2010,"draft":"1.90","pictures":["https://ws.nausys.com/CBMS-external/rest/yacht/515076/pictures/main.jpg","https://ws.nausys.com/CBMS-external/rest/yachtModel/100253/pictures/layout.jpg","https://ws.nausys.com/CBMS-external/rest/yacht/515076/pictures/p.jpg","https://ws.nausys.com/CBMS-external/rest/yacht/515076/pictures/p1.jpg","https://ws.nausys.com/CBMS-external/rest/yacht/515076/pictures/p2.jpg","https://ws.nausys.com/CBMS-external/rest/yacht/515076/pictures/p3.jpg","https://ws.nausys.com/CBMS-external/rest/yacht/515076/pictures/r.jpg","https://ws.nausys.com/CBMS-external/rest/yacht/515076/pictures/r1.jpg","https://ws.nausys.com/CBMS-external/rest/yacht/515076/pictures/soba prova.jpg","https://ws.nausys.com/CBMS-external/rest/yacht/515076/pictures/w.jpg","https://ws.nausys.com/CBMS-external/rest/yacht/515076/pictures/w1.jpg","https://ws.nausys.com/CBMS-external/rest/yacht/515076/pictures/w2.jpg","https://ws.nausys.com/CBMS-external/rest/yacht/515076/pictures/w3.jpg"],"wc":3,"featured_equipment":[{"image":"avtopilot.svg","name":"Automatski pilot"},{"image":"gps-ploter.svg","name":"GPS chart ploter"},{"image":"premcni-propeler.svg","name":"Premčni propeler"}]},"label":null,"location_from":{"name":"Marina Hramina, Murter","region_name":"Šibenska regija","country_name":"Hrvaška","country_code":"HRV","country_iso_code":"HR","lat":"43.826550","lon":"15.591810"},"price_list_price":"2000.00","client_price":"1710.00","period_from":"2023-03-11","period_to":"2023-03-18","special_offer":null,"discount":"6.00","option":false},{"id":7113031,"yacht":{"id":2256,"yacht_model":{"name":"Bavaria Cruiser 41 - 3 cab.","category_name":"Jadrnica","loa":"12.35","beam":"3.95","draft":"1.65","cabins":3,"wc":2,"water_tank":0,"fuel_tank":0,"displacement":0},"cabins_total":3,"berths_total":7,"build_year":2016,"draft":"2.09","pictures":["https://ws.nausys.com/CBMS-external/rest/yacht/1050258/pictures/main.jpg","https://ws.nausys.com/CBMS-external/rest/yacht/1050258/pictures/layout.jpg","https://ws.nausys.com/CBMS-external/rest/yacht/1050258/pictures/n.jpg","https://ws.nausys.com/CBMS-external/rest/yacht/1050258/pictures/n1.jpg","https://ws.nausys.com/CBMS-external/rest/yacht/1050258/pictures/n2.jpg","https://ws.nausys.com/CBMS-external/rest/yacht/1050258/pictures/p.jpg","https://ws.nausys.com/CBMS-external/rest/yacht/1050258/pictures/p2.jpg","https://ws.nausys.com/CBMS-external/rest/yacht/1050258/pictures/p3.jpg","https://ws.nausys.com/CBMS-external/rest/yacht/1050258/pictures/r.jpg","https://ws.nausys.com/CBMS-external/rest/yacht/1050258/pictures/r1.jpg","https://ws.nausys.com/CBMS-external/rest/yacht/1050258/pictures/r2.jpg","https://ws.nausys.com/CBMS-external/rest/yacht/1050258/pictures/r3.jpg","https://ws.nausys.com/CBMS-external/rest/yacht/1050258/pictures/w.jpg","https://ws.nausys.com/CBMS-external/rest/yacht/1050258/pictures/w1.png"],"wc":2,"featured_equipment":[{"image":"avtopilot.svg","name":"Automatski pilot"},{"image":"gps-ploter.svg","name":"GPS chart ploter"},{"image":"premcni-propeler.svg","name":"Premčni propeler"}]},"label":null,"location_from":{"name":"Marina Hramina, Murter","region_name":"Šibenska regija","country_name":"Hrvaška","country_code":"HRV","country_iso_code":"HR","lat":"43.826550","lon":"15.591810"},"price_list_price":"1900.00","client_price":"1624.50","period_from":"2023-03-11","period_to":"2023-03-18","special_offer":null,"discount":"6.00","option":false},{"id":7113032,"yacht":{"id":2271,"yacht_model":{"name":"Bavaria Cruiser 46 - 4 cab.","category_name":"Jadrnica","loa":"14.27","beam":"4.35","draft":"2.10","cabins":4,"wc":3,"water_tank":0,"fuel_tank":0,"displacement":0},"cabins_total":4,"berths_total":9,"build_year":2014,"draft":"2.10","pictures":["https://ws.nausys.com/CBMS-external/rest/yacht/580589/pictures/main.jpg","https://ws.nausys.com/CBMS-external/rest/yacht/580589/pictures/layout.jpg","https://ws.nausys.com/CBMS-external/rest/yacht/580589/pictures/n.jpg","https://ws.nausys.com/CBMS-external/rest/yacht/580589/pictures/n1.jpg","https://ws.nausys.com/CBMS-external/rest/yacht/580589/pictures/n2.jpg","https://ws.nausys.com/CBMS-external/rest/yacht/580589/pictures/p.jpg","https://ws.nausys.com/CBMS-external/rest/yacht/580589/pictures/p1.jpg","https://ws.nausys.com/CBMS-external/rest/yacht/580589/pictures/p2.jpg","https://ws.nausys.com/CBMS-external/rest/yacht/580589/pictures/p3.jpg","https://ws.nausys.com/CBMS-external/rest/yacht/580589/pictures/p4.jpg","https://ws.nausys.com/CBMS-external/rest/yacht/580589/pictures/p5.jpg","https://ws.nausys.com/CBMS-external/rest/yacht/580589/pictures/r.jpg","https://ws.nausys.com/CBMS-external/rest/yacht/580589/pictures/r1.jpg","https://ws.nausys.com/CBMS-external/rest/yacht/580589/pictures/r3.jpg","https://ws.nausys.com/CBMS-external/rest/yacht/580589/pictures/r4.jpg","https://ws.nausys.com/CBMS-external/rest/yacht/580589/pictures/w.jpg"],"wc":3,"featured_equipment":[{"image":"avtopilot.svg","name":"Automatski pilot"},{"image":"gps-ploter.svg","name":"GPS chart ploter"},{"image":"premcni-propeler.svg","name":"Premčni propeler"}]},"label":null,"location_from":{"name":"Marina Hramina, Murter","region_name":"Šibenska regija","country_name":"Hrvaška","country_code":"HRV","country_iso_code":"HR","lat":"43.826550","lon":"15.591810"},"price_list_price":"2000.00","client_price":"1710.00","period_from":"2023-03-11","period_to":"2023-03-18","special_offer":null,"discount":"6.00","option":false},{"id":7113033,"yacht":{"id":2280,"yacht_model":{"name":"Bavaria Cruiser 46 - 4 cab.","category_name":"Jadrnica","loa":"14.27","beam":"4.35","draft":"2.10","cabins":4,"wc":3,"water_tank":0,"fuel_tank":0,"displacement":0},"cabins_total":4,"berths_total":9,"build_year":2015,"draft":"2.10","pictures":["https://ws.nausys.com/CBMS-external/rest/yacht/833661/pictures/main.jpg","https://ws.nausys.com/CBMS-external/rest/yacht/833661/pictures/layout.jpg","https://ws.nausys.com/CBMS-external/rest/yacht/833661/pictures/n.jpg","https://ws.nausys.com/CBMS-external/rest/yacht/833661/pictures/n1.jpg","https://ws.nausys.com/CBMS-external/rest/yacht/833661/pictures/n2.jpg","https://ws.nausys.com/CBMS-external/rest/yacht/833661/pictures/p.jpg","https://ws.nausys.com/CBMS-external/rest/yacht/833661/pictures/p1.jpg","https://ws.nausys.com/CBMS-external/rest/yacht/833661/pictures/p2.jpg","https://ws.nausys.com/CBMS-external/rest/yacht/833661/pictures/p3.jpg","https://ws.nausys.com/CBMS-external/rest/yacht/833661/pictures/p4.jpg","https://ws.nausys.com/CBMS-external/rest/yacht/833661/pictures/p5.jpg","https://ws.nausys.com/CBMS-external/rest/yacht/833661/pictures/r.jpg","https://ws.nausys.com/CBMS-external/rest/yacht/833661/pictures/r1.jpg","https://ws.nausys.com/CBMS-external/rest/yacht/833661/pictures/r3.jpg","https://ws.nausys.com/CBMS-external/rest/yacht/833661/pictures/r4.jpg","https://ws.nausys.com/CBMS-external/rest/yacht/833661/pictures/w.jpg"],"wc":3,"featured_equipment":[{"image":"avtopilot.svg","name":"Automatski pilot"},{"image":"gps-ploter.svg","name":"GPS chart ploter"},{"image":"premcni-propeler.svg","name":"Premčni propeler"}]},"label":null,"location_from":{"name":"Marina Hramina, Murter","region_name":"Šibenska regija","country_name":"Hrvaška","country_code":"HRV","country_iso_code":"HR","lat":"43.826550","lon":"15.591810"},"price_list_price":"2000.00","client_price":"1710.00","period_from":"2023-03-11","period_to":"2023-03-18","special_offer":null,"discount":"6.00","option":false}],"destination":{"id":7,"name":"Šibenska regija","text":"<p>Dragulj, ki se nahaja v sredi&scaron;ču Jadrana. Narava je poskrbela za čudež in pomor&scaron;čakom oblikovala &quot;morsko cesto&quot;&nbsp;med razvejano celinsko obalo z izjemnim narodnim parkom Krka in &scaron;tevilnimi otoki, od katerih velja &scaron;e posebej izpostaviti - najlep&scaron;e, največje, in sploh naj ... Kornate!</p>","image":{"thumbnail":"/media/__sized__/regions/sibenik-thumbnail-600x600-70.jpg"}}}